<?xml version="1.0" encoding="UTF-8"?>
<ModuleFile xmlns:xsi="http://www.w3.org/2001/XMLSchema-instance" >	
  <UiMod name="Pure Templates" version="1.1" date="2010/10">		
    <Author name="Wikki" email="wikkifizzle@gmail.com" />		
    <Description text="Pure Templates - Additional templates for Pure Unit Frames" />		
    <VersionSettings gameVersion="1.9.9" windowsVersion="1.0" savedVariablesVersion="1.0" />		 		
    <Dependencies>			
      <Dependency name="Pure" />        
    </Dependencies>                 
    <Files>			
      <File name="Free/Free.xml" />			
      <File name="Free/Free.lua" />		
    </Files>	
  </UiMod>
</ModuleFile>